id,trigger,conditions,script,text,options,notes
onNewGameCreationStart,BeginNewGameCreation,,FireAll PreNewGameChoices,,,
ngcDSPreStartChoices,PreNewGameChoices,,"SetTooltip ngcClassic ""Character creation is the same as vanilla Starsector, and the tutorial is available.""
SetTooltip ngcDynamic ""Start with a faction and fleet size of your choosing; the tutorial is not available.""",Select the character creation method.,"0:ngcClassic:Classic
1:ngcDynamic:Dynamic",
,,,,,,
ngcDSClassicStart,NewGameOptionSelected,$option == ngcClassic,"NGCAddCredits 2000
FireAll InitNewGameChoices",,,
,,,,,,
ngcDSDynamicStart,NewGameOptionSelected,$option == ngcDynamic,"NGCAddCredits 2000
FireAll DSNewGameChoices",,,
ngcDSBegin,DSNewGameChoices,,"$ngcMode = ""group""
DS_NGCAddFactionOptions group","Over the last cycle, you've been making your living as...",,
ngcDSGroupOption,NewGameOptionSelected,"$ngcMode == ""group""","$ngcMode = ""faction""
DS_NGCSetGroup $option
DS_NGCAddFactionOptions faction $ngcGroup",,,
ngcDSGroupOptionBack,NewGameOptionSelected,"$ngcMode == ""group""
$option == ngcGroupBack","DS_NGCResetShipsAndCredits 0
unset $ngcMode
FireAll PreNewGameChoices",,,"Back options should revert anything added to starting cargo, but don't generally need to unset variables in the current implementation
This is the one exception, to ensure the rules plugin picks the correct row when clicking ""Dynamic"""
ngcDSFactionOption,NewGameOptionSelected,"$ngcMode == ""faction""","$ngcMode = ""ship""
DS_NGCSetFaction $option
DS_NGCAddShipOptions ship $ngcGroup $ngcFaction",,,
ngcDSFactionOptionBack,NewGameOptionSelected,"$ngcMode == ""faction""
$option == ngcFactionBack","$ngcMode = ""group""
FireAll DSNewGameChoices",,,
ngcDSShipOption,NewGameOptionSelected,"$ngcMode == ""ship""","$ngcMode = ""size""
DS_NGCSetShipType $option
DS_NGCAddShipOptions size $ngcGroup $ngcFaction $ngcShipType",,,
ngcDSShipOptionBack,NewGameOptionSelected,"$ngcMode == ""ship""
$option == ngcShipTypeBack","$ngcMode = ""faction""
DS_NGCAddFactionOptions faction $ngcGroup",,,
ngcDSSizeOption,NewGameOptionSelected,"$ngcMode == ""size""","$ngcMode = ""difficulty""
DS_NGCSetSize $option $ngcFaction $ngcShipType
FireAll DSDifficultyOptions",,,
ngcDSSizeOptionBack,NewGameOptionSelected,"$ngcMode == ""size""
$option == ngcSizeBack","$ngcMode = ""ship""
DS_NGCAddShipOptions ship $ngcGroup $ngcFaction",,,
ngcDSDifficulty,DSDifficultyOptions,,"SetTooltip ngcDSEasy ""- Your ships take 25% less damage\n- Sensor range increased by 500 units\n- Salvage increased by 50%""
SetTooltipHighlightColors ngcEasy hColor hColor hColor
SetTooltipHighlights ngcEasy ""25%"" ""500"" ""50%""
SetTooltip ngcDSNormal ""Default settings balanced for a challenging experience.""","Select the campaign difficulty level. ""Easy"" is recommended for a first-time player.","0:ngcDSNormal:Normal
1:ngcDSEasy:Easy
2:ngcDSDifficultyBack:Back",
ngcDSEasyPicked,NewGameOptionSelected,$option == ngcDSEasy,"NGCSetDifficulty easy
",,0:ngcDone:Done,
ngcDSNormalPicked,NewGameOptionSelected,$option == ngcDSNormal,"NGCSetDifficulty normal
",,0:ngcDone:Done,
ngcDSDifficultyBack,NewGameOptionSelected,$option == ngcDSDifficultyBack,"DS_NGCResetShipsAndCredits 2000
$ngcMode = ""size""
DS_NGCAddShipOptions size $ngcGroup $ngcFaction $ngcShipType",,,
ngcDSDoneOption,NewGameOptionSelected,$option == ngcDone,"$ngcSkipTutorial = true
NGCAddCharacterPoints 3
DS_AddStartingScript
NGCDone",,,
,,,,,,
sal_default,OpenInteractionDialog,$tag:salvageable,"DS_SalvageGenFromSeed
FireBest ShowSalvageEntityDetails
FireBest SalvageCheckHostile",,,
sal_derelictDefault,OpenInteractionDialog,"$tag:salvageable
$faction.id == derelict","DS_SalvageGenFromSeed
FireBest ShowSalvageEntityDetails
FireBest SalvageCheckHostile",Your $shipOrFleet approaches a $nameInText left from the initial Domain exploration of the Sector.,,
sal_scavengeDebris,OpenInteractionDialog,"$tag:salvageable
$customType == debris_field_shared score:100","DS_SalvageGenFromSeed
ShowDefaultVisual
SalvageEntity descDebris
FireBest SalvageCheckHostile",Your $shipOrFleet assumes a stable orbit relative to the debris field.,,
